{
  "atualizacao":"2015-05-29 09:00:17",
  "tpAmb":2,
  "pathXmlUrlFileNFe":"nfe_ws3_mod55.xml",
  "pathXmlUrlFileCTe":"cte_ws1.xml",
  "pathXmlUrlFileMDFe":"mdfe_ws1.xml",
  "pathXmlUrlFileCLe":"cle_ws1.xml",
  "pathXmlUrlFileNFSe":"",
  "pathNFeFiles": "\/var\/www\/nfe",
  "pathCTeFiles":" \/var\/www\/cte",
  "pathMDFeFiles":"\/var\/www\/mdfe",
  "pathCLeFiles":"\/var\/www\/cle",
  "pathNFSeFiles":"\/var\/www\/nfse",
  "pathCertsFiles": "\/home\/vagrant\/Code\/AutoSteuer\/",
  "siteUrl":"http:\/\/localhost\/nfephp",
  "schemesNFe":"PL_008f",
  "schemesCTe":"PL_CTE_104",
  "schemesMDFe":"MDFe_100",
  "schemesCLe":"CLe_100",
  "schemesNFSe":"",
  "razaosocial":"Auto Steuer",
  "siglaUF":"SP",
  "cnpj":"99999090910270",
  "certPfxName":"certificado_teste.pfx",
  "certPassword":"associacao",
  "certPhrase":"",
  "nomefantasia": "AutoSteuer",
  "ie": "0000000000",
  "iest": "0000000000",
  "im": "0000000000",
  "cnae": "0000000000",
  "regime": "0000000000",
  "aDocFormat":{
    "format":"P",
    "paper":"A4",
    "southpaw":"1",
    "pathLogoFile":"\/var\/www\/nfephp\/images\/logo.jpg",
    "logoPosition":"L",
    "font":"Times",
    "printer":"hpteste"
  },
  "aMailConf":{
    "mailAuth":"1",
    "mailFrom":"seu@email.com.br",
    "mailSmtp":"smtp.email.com.br",
    "mailUser":"seu@email.com.br",
    "mailPass":"senha",
    "mailProtocol":"ssl",
    "mailPort":"587",
    "mailFromMail":null,
    "mailFromName":null,
    "mailReplayToMail":null,
    "mailReplayToName":null,
    "mailImapHost":null,
    "mailImapPort":null,
    "mailImapSecurity":null,
    "mailImapNocerts":null,
    "mailImapBox":null
  },
  "aProxyConf":{
    "proxyIp":"",
    "proxyPort":"",
    "proxyUser":"",
    "proxyPass":""
  }
}